{"meta":{"total":7,"per_page":5,"current_page":1,"last_page":2,"first_page":1,"first_page_url":"/?page=1","last_page_url":"/?page=2","next_page_url":"/?page=2","previous_page_url":null},"data":[{"id":1,"name":"hello","created_at":"2021-12-31T22:08:51.000+08:00","updated_at":"2021-12-31T21:20:04.000+08:00"},{"id":2,"name":"hello2","created_at":"2022-01-01T01:47:39.000+08:00","updated_at":"2022-01-01T01:47:23.000+08:00"},{"id":3,"name":"hello3","created_at":"2022-01-01T01:47:41.000+08:00","updated_at":"2022-01-01T01:47:26.000+08:00"},{"id":4,"name":"hello4","created_at":"2022-01-01T01:47:43.000+08:00","updated_at":"2022-01-01T01:47:28.000+08:00"},{"id":5,"name":"hello5","created_at":"2022-01-01T01:47:46.000+08:00","updated_at":"2022-01-01T01:47:29.000+08:00"}]}